[gd_scene load_steps=4 format=3 uid="uid://c2md3rj6rhbjv"]

[ext_resource type="PackedScene" uid="uid://u13gs7xfhbs6" path="res://cenas/npc.tscn" id="1_1k0es"]
[ext_resource type="Shader" path="res://scripts/shaders/mudar_paleta.gdshader" id="2_f2p6d"]

[sub_resource type="ShaderMaterial" id="ShaderMaterial_j0nsq"]
resource_local_to_scene = true
shader = ExtResource("2_f2p6d")
shader_parameter/original_0 = Color(0.941176, 0, 0, 1)
shader_parameter/original_1 = Color(1, 1, 0, 1)
shader_parameter/original_2 = Color(0, 1, 0, 1)
shader_parameter/original_3 = Color(1, 0.501961, 0, 1)
shader_parameter/original_4 = Color(0, 0, 1, 1)
shader_parameter/replace_0 = Color(0.901639, 0.330082, 0.546286, 1)
shader_parameter/replace_1 = Color(0.649391, 0.519184, 0.977842, 1)
shader_parameter/replace_2 = Color(0.482501, 0.417649, 0.963705, 1)
shader_parameter/replace_3 = Color(0.306862, 0.295926, 0.754153, 1)
shader_parameter/replace_4 = Color(0.143088, 0.0873361, 0.154537, 1)

[node name="Bia" instance=ExtResource("1_1k0es")]
nome = "Bia"
cor = 5
cor_cabelo = 2
cor_olho = 1
penteado = 1
camisa = 1

[node name="animacao" parent="." index="3"]
material = SubResource("ShaderMaterial_j0nsq")
