[gd_scene load_steps=4 format=3 uid="uid://ugu8txqmab4w"]

[ext_resource type="PackedScene" uid="uid://u13gs7xfhbs6" path="res://cenas/npc.tscn" id="1_w4h6e"]
[ext_resource type="Shader" path="res://scripts/shaders/mudar_paleta.gdshader" id="2_0de3o"]

[sub_resource type="ShaderMaterial" id="ShaderMaterial_j0nsq"]
resource_local_to_scene = true
shader = ExtResource("2_0de3o")
shader_parameter/original_0 = Color(0.941176, 0, 0, 1)
shader_parameter/original_1 = Color(1, 1, 0, 1)
shader_parameter/original_2 = Color(0, 1, 0, 1)
shader_parameter/original_3 = Color(1, 0.501961, 0, 1)
shader_parameter/original_4 = Color(0, 0, 1, 1)
shader_parameter/replace_0 = Color(0.901639, 0.330082, 0.546286, 1)
shader_parameter/replace_1 = Color(0.649391, 0.519184, 0.977842, 1)
shader_parameter/replace_2 = Color(0.482501, 0.417649, 0.963705, 1)
shader_parameter/replace_3 = Color(0.306862, 0.295926, 0.754153, 1)
shader_parameter/replace_4 = Color(0.143088, 0.0873361, 0.154537, 1)

[node name="Helb" instance=ExtResource("1_w4h6e")]
nome = "Helb"
cor = 3
cor_cabelo = 4
cor_olho = 1
penteado = 2
camisa = 2

[node name="animacao" parent="." index="4"]
material = SubResource("ShaderMaterial_j0nsq")
