[gd_scene load_steps=2 format=3 uid="uid://bq8efll0ndmun"]

[ext_resource type="PackedScene" uid="uid://ru40lq32y66k" path="res://componentes/objeto.tscn" id="1_bekn2"]

[node name="Computador" instance=ExtResource("1_bekn2")]

[node name="Item_Pegável" parent="." index="0"]
nome_do_objeto = "Computador"
